iter	Passed	Remaining
0	81	122316
1	132	99537
2	180	89979
3	228	85359
4	277	83091
5	346	86171
6	395	84369
7	446	83221
8	493	81703
9	547	81556
10	611	82755
11	670	83127
12	729	83387
13	810	86042
14	869	86037
15	919	85240
16	967	84431
17	1027	84563
18	1086	84694
19	1137	84160
20	1183	83372
21	1245	83660
22	1312	84291
23	1364	83898
24	1412	83312
25	1475	83660
26	1526	83280
27	1583	83243
28	1635	82983
29	1690	82855
30	1748	82833
31	1798	82489
32	1851	82291
33	1913	82517
34	1967	82364
35	2017	82026
36	2067	81754
37	2133	82067
38	2188	81967
39	2250	82157
40	2315	82393
41	2386	82836
42	2454	83152
43	2510	83080
44	2573	83219
45	2642	83513
46	2698	83422
47	2751	83239
48	2802	82997
49	2869	83227
50	2930	83266
51	3005	83693
52	3072	83879
53	3130	83823
54	3176	83467
55	3228	83248
56	3278	83002
57	3341	83073
58	3391	82844
59	3440	82582
60	3489	82314
61	3538	82062
62	3604	82210
63	3653	81986
64	3711	81937
65	3776	82048
66	3858	82529
67	3922	82609
68	3977	82485
69	4035	82440
70	4122	82970
71	4178	82875
72	4238	82863
73	4305	82963
74	4368	83000
75	4421	82840
76	4483	82861
77	4538	82734
78	4624	83184
79	4700	83439
80	4766	83498
81	4856	83983
82	4951	84535
83	5035	84883
84	5129	85389
85	5223	85881
86	5308	86216
87	5397	86613
88	5460	86564
89	5522	86511
90	5596	86654
91	5658	86602
92	5733	86738
93	5800	86767
94	5872	86857
95	5964	87228
96	6047	87477
97	6145	87917
98	6221	88043
99	6299	88192
100	6375	88310
101	6437	88227
102	6503	88203
103	6569	88180
104	6646	88306
105	6716	88327
106	6781	88291
107	6851	88306
108	6913	88228
109	6983	88241
110	7046	88174
111	7117	88210
112	7177	88100
113	7244	88072
114	7318	88136
115	7393	88214
116	7472	88333
117	7538	88286
118	7604	88244
119	7677	88292
120	7767	88528
121	7846	88630
122	7910	88553
123	7982	88575
124	8041	88452
125	8108	88426
126	8155	88168
127	8230	88218
128	8304	88260
129	8372	88236
130	8454	88350
131	8565	88773
132	8683	89249
133	8748	89187
134	8818	89162
135	8896	89225
136	8983	89375
137	9068	89497
138	9170	89788
139	9248	89838
140	9314	89779
141	9383	89735
142	9454	89720
143	9523	89681
144	9604	89756
145	9695	89911
146	9761	89841
147	9824	89752
148	9888	89661
149	9961	89649
150	10035	89651
151	10106	89624
152	10182	89641
153	10246	89560
154	10320	89556
155	10388	89497
156	10462	89499
157	10518	89341
158	10591	89327
159	10655	89236
160	10766	89545
161	10857	89676
162	10903	89435
163	10972	89386
164	11052	89423
165	11150	89608
166	11211	89489
167	11310	89677
168	11408	89847
169	11476	89787
170	11539	89681
171	11603	89589
172	11665	89480
173	11732	89408
174	11807	89402
175	11881	89381
176	11930	89173
177	11995	89087
178	12063	89028
179	12122	88899
180	12195	88872
181	12226	88542
182	12296	88495
183	12359	88397
184	12427	88336
185	12494	88271
186	12558	88177
187	12627	88127
188	12694	88056
189	12763	88003
190	12830	87931
191	12913	87972
192	13009	88097
193	13095	88155
194	13164	88102
195	13225	87992
196	13294	87934
197	13347	87768
198	13417	87722
199	13483	87640
200	13543	87530
201	13616	87497
202	13692	87484
203	13759	87411
204	13826	87341
205	13892	87263
206	13955	87172
207	14024	87113
208	14091	87045
209	14175	87076
210	14239	86989
211	14307	86926
212	14380	86890
213	14439	86774
214	14509	86720
215	14571	86617
216	14636	86535
217	14707	86491
218	14767	86378
219	14833	86306
220	14908	86283
221	14968	86170
222	15038	86115
223	15110	86073
224	15187	86062
225	15222	85810
226	15290	85748
227	15358	85683
228	15422	85598
229	15486	85513
230	15551	85432
231	15612	85330
232	15678	85254
233	15739	85152
234	15799	85046
235	15863	84961
236	15927	84879
237	15996	84824
238	16058	84726
239	16144	84758
240	16235	84813
241	16319	84832
242	16387	84770
243	16445	84652
244	16512	84583
245	16583	84534
246	16654	84484
247	16721	84417
248	16789	84351
249	16850	84254
250	16920	84196
251	16986	84125
252	17058	84079
253	17122	83994
254	17189	83925
255	17259	83872
256	17329	83813
257	17392	83725
258	17455	83639
259	17521	83565
260	17592	83514
261	17655	83426
262	17721	83352
263	17792	83302
264	17863	83248
265	17918	83123
266	17985	83054
267	18059	83020
268	18138	83003
269	18221	83007
270	18319	83081
271	18390	83027
272	18468	83005
273	18530	82913
274	18594	82829
275	18667	82787
276	18736	82726
277	18798	82630
278	18876	82610
279	18957	82599
280	19046	82625
281	19126	82608
282	19174	82458
283	19241	82384
284	19300	82280
285	19355	82159
286	19387	81942
287	19453	81865
288	19518	81786
289	19593	81751
290	19671	81727
291	19731	81629
292	19801	81572
293	19861	81473
294	19927	81397
295	19992	81322
296	20061	81258
297	20133	81211
298	20205	81160
299	20268	81073
300	20335	81003
301	20403	80938
302	20466	80854
303	20540	80811
304	20617	80781
305	20695	80752
306	20769	80712
307	20834	80630
308	20903	80568
309	20971	80503
310	21047	80466
311	21120	80419
312	21193	80372
313	21256	80287
314	21335	80260
315	21421	80264
316	21506	80259
317	21574	80193
318	21643	80128
319	21724	80110
320	21800	80069
321	21873	80022
322	21937	79939
323	22008	79881
324	22081	79832
325	22147	79757
326	22216	79693
327	22288	79640
328	22349	79549
329	22417	79481
330	22489	79426
331	22551	79338
332	22623	79284
333	22691	79216
334	22764	79167
335	22837	79117
336	22904	79045
337	22966	78955
338	23039	78905
339	23113	78857
340	23183	78798
341	23254	78737
342	23331	78700
343	23396	78624
344	23462	78547
345	23540	78512
346	23627	78508
347	23714	78501
348	23779	78424
349	23854	78377
350	23935	78353
351	24008	78299
352	24076	78231
353	24152	78187
354	24269	78278
355	24384	78358
356	24475	78363
357	24546	78303
358	24617	78240
359	24687	78177
360	24753	78100
361	24823	78035
362	24886	77949
363	24954	77880
364	25036	77852
365	25110	77802
366	25175	77721
367	25251	77675
368	25318	77602
369	25394	77555
370	25475	77524
371	25554	77486
372	25625	77424
373	25697	77366
374	25765	77296
375	25839	77242
376	25902	77157
377	25971	77091
378	26065	77096
379	26174	77144
380	26265	77141
381	26335	77076
382	26409	77022
383	26470	76929
384	26538	76857
385	26605	76782
386	26672	76710
387	26742	76644
388	26806	76561
389	26871	76480
390	26944	76423
391	27021	76376
392	27084	76291
393	27160	76242
394	27236	76192
395	27309	76134
396	27381	76076
397	27456	76024
398	27540	75995
399	27615	75943
400	27685	75876
401	27756	75812
402	27841	75787
403	27940	75798
404	28035	75798
405	28157	75873
406	28224	75795
407	28305	75757
408	28401	75761
409	28471	75691
410	28570	75700
411	28643	75641
412	28717	75583
413	28798	75543
414	28896	75547
415	28964	75474
416	29039	75420
417	29132	75409
418	29218	75382
419	29282	75298
420	29347	75216
421	29418	75150
422	29489	75084
423	29560	75016
424	29632	74953
425	29693	74861
426	29757	74778
427	29825	74703
428	29892	74625
429	29961	74556
430	30024	74469
431	30093	74397
432	30164	74330
433	30228	74247
434	30300	74183
435	30362	74094
436	30432	74025
437	30505	73966
438	30583	73916
439	30646	73829
440	30711	73749
441	30780	73678
442	30841	73588
443	30910	73516
444	30969	73422
445	31041	73358
446	31110	73286
447	31174	73205
448	31243	73132
449	31315	73069
450	31383	72996
451	31447	72913
452	31527	72868
453	31620	72852
454	31703	72812
455	31781	72762
456	31846	72681
457	31914	72608
458	31977	72523
459	32045	72450
460	32119	72390
461	32180	72301
462	32240	72209
463	32303	72126
464	32374	72059
465	32448	71998
466	32512	71917
467	32587	71858
468	32654	71784
469	32727	71721
470	32814	71691
471	32899	71654
472	32964	71574
473	33036	71509
474	33110	71449
475	33175	71369
476	33246	71301
477	33319	71239
478	33387	71165
479	33451	71084
480	33524	71022
481	33595	70955
482	33658	70870
483	33729	70804
484	33799	70735
485	33874	70677
486	33947	70613
487	34020	70550
488	34088	70478
489	34150	70390
490	34219	70320
491	34282	70237
492	34350	70164
493	34420	70095
494	34486	70017
495	34552	69941
496	34623	69874
497	34685	69788
498	34759	69728
499	34825	69650
500	34898	69588
501	34986	69555
502	35092	69557
503	35201	69564
504	35279	69510
505	35356	69455
506	35445	69423
507	35513	69350
508	35598	69308
509	35682	69265
510	35770	69231
511	35847	69174
512	35931	69131
513	36025	69107
514	36111	69067
515	36194	69022
516	36272	68967
517	36359	68927
518	36451	68898
519	36532	68849
520	36613	68799
521	36697	68754
522	36757	68666
523	36829	68599
524	36923	68573
525	37001	68516
526	37082	68465
527	37168	68423
528	37268	68408
529	37354	68366
530	37435	68315
531	37514	68260
532	37609	68233
533	37696	68192
534	37775	68137
535	37843	68060
536	37910	67984
537	37976	67905
538	38049	67839
539	38118	67765
540	38180	67680
541	38260	67626
542	38331	67556
543	38399	67481
544	38464	67401
545	38531	67323
546	38590	67234
547	38657	67156
548	38721	67075
549	38790	67001
550	38861	66932
551	38921	66843
552	38993	66774
553	39064	66706
554	39125	66619
555	39194	66546
556	39254	66458
557	39328	66392
558	39406	66335
559	39477	66265
560	39543	66188
561	39609	66109
562	39674	66029
563	39738	65949
564	39812	65884
565	39898	65839
566	40021	65855
567	40087	65776
568	40165	65718
569	40251	65673
570	40359	65664
571	40423	65582
572	40501	65522
573	40574	65455
574	40643	65382
575	40711	65308
576	40781	65235
577	40849	65160
578	40918	65087
579	40991	65020
580	41063	64952
581	41125	64867
582	41204	64810
583	41268	64729
584	41343	64666
585	41413	64594
586	41487	64528
587	41549	64444
588	41619	64372
589	41681	64288
590	41749	64214
591	41818	64140
592	41882	64060
593	41952	63987
594	42015	63906
595	42084	63832
596	42151	63757
597	42211	63670
598	42296	63620
599	42383	63574
600	42469	63527
601	42540	63457
602	42611	63386
603	42690	63328
604	42766	63266
605	42840	63200
606	42903	63118
607	42975	63049
608	43036	62965
609	43103	62888
610	43171	62814
611	43252	62758
612	43322	62686
613	43381	62599
614	43452	62529
615	43524	62460
616	43587	62378
617	43659	62310
618	43731	62241
619	43809	62180
620	43874	62102
621	43946	62033
622	44014	61960
623	44083	61886
624	44147	61805
625	44217	61734
626	44288	61665
627	44352	61585
628	44414	61503
629	44473	61415
630	44542	61343
631	44611	61269
632	44682	61200
633	44767	61149
634	44877	61131
635	44954	61070
636	45024	60998
637	45087	60918
638	45162	60853
639	45229	60776
640	45295	60700
641	45365	60629
642	45430	60550
643	45497	60474
644	45563	60397
645	45624	60314
646	45691	60239
647	45758	60164
648	45826	60089
649	45894	60015
650	45974	59957
651	46052	59896
652	46119	59820
653	46184	59742
654	46248	59663
655	46310	59581
656	46384	59516
657	46445	59433
658	46514	59361
659	46583	59288
660	46646	59208
661	46715	59134
662	46782	59060
663	46857	58995
664	46920	58914
665	46993	58847
666	47067	58780
667	47132	58703
668	47206	58637
669	47279	58570
670	47340	58488
671	47408	58414
672	47478	58343
673	47542	58264
674	47610	58190
675	47670	58107
676	47743	58039
677	47810	57964
678	47874	57886
679	47942	57812
680	48009	57738
681	48072	57658
682	48153	57600
683	48254	57566
684	48337	57510
685	48409	57442
686	48481	57372
687	48550	57300
688	48612	57220
689	48676	57142
690	48744	57068
691	48810	56992
692	48879	56919
693	48945	56843
694	49008	56764
695	49075	56690
696	49137	56610
697	49202	56533
698	49288	56481
699	49363	56415
700	49434	56345
701	49501	56270
702	49563	56190
703	49631	56116
704	49697	56042
705	49764	55967
706	49833	55895
707	49903	55823
708	49975	55755
709	50037	55675
710	50106	55603
711	50166	55521
712	50237	55451
713	50309	55382
714	50389	55322
715	50461	55253
716	50525	55175
717	50594	55104
718	50682	55052
719	50768	54999
720	50828	54917
721	50912	54861
722	50974	54781
723	51042	54708
724	51102	54627
725	51169	54552
726	51237	54479
727	51302	54403
728	51373	54333
729	51441	54260
730	51518	54196
731	51587	54124
732	51660	54057
733	51724	53979
734	51795	53909
735	51868	53841
736	51928	53760
737	51999	53690
738	52070	53620
739	52133	53542
740	52204	53472
741	52273	53401
742	52343	53329
743	52412	53258
744	52473	53178
745	52541	53105
746	52625	53048
747	52713	52995
748	52813	52954
749	52902	52902
750	52969	52828
751	53032	52749
752	53099	52676
753	53163	52599
754	53231	52526
755	53298	52452
756	53360	52374
757	53432	52305
758	53500	52231
759	53571	52161
760	53631	52081
761	53706	52015
762	53770	51938
763	53848	51874
764	53913	51799
765	53978	51723
766	54044	51648
767	54114	51578
768	54177	51500
769	54246	51428
770	54309	51351
771	54379	51279
772	54448	51207
773	54520	51139
774	54583	51062
775	54655	50992
776	54716	50914
777	54779	50836
778	54860	50776
779	54931	50706
780	55002	50636
781	55068	50562
782	55137	50489
783	55204	50416
784	55270	50342
785	55340	50270
786	55411	50201
787	55473	50122
788	55533	50043
789	55603	49972
790	55672	49900
791	55740	49828
792	55828	49773
793	55933	49734
794	56025	49682
795	56086	49604
796	56147	49525
797	56215	49452
798	56280	49377
799	56356	49312
800	56415	49231
801	56484	49160
802	56553	49088
803	56625	49019
804	56688	48942
805	56761	48874
806	56842	48813
807	56941	48766
808	57052	48730
809	57140	48675
810	57234	48624
811	57304	48553
812	57368	48477
813	57436	48404
814	57501	48329
815	57565	48253
816	57635	48182
817	57703	48109
818	57778	48042
819	57848	47971
820	57917	47900
821	57977	47820
822	58052	47754
823	58121	47682
824	58181	47603
825	58252	47532
826	58322	47461
827	58391	47390
828	58458	47316
829	58530	47247
830	58615	47188
831	58707	47135
832	58787	47072
833	58856	47000
834	58923	46926
835	58988	46852
836	59057	46780
837	59123	46705
838	59206	46645
839	59283	46579
840	59353	46508
841	59426	46440
842	59505	46376
843	59576	46305
844	59649	46237
845	59717	46164
846	59785	46091
847	59855	46020
848	59920	45946
849	59995	45878
850	60063	45806
851	60127	45730
852	60198	45660
853	60273	45593
854	60340	45520
855	60404	45444
856	60473	45373
857	60534	45295
858	60605	45224
859	60665	45146
860	60729	45071
861	60796	44997
862	60860	44922
863	60933	44854
864	61003	44782
865	61065	44706
866	61130	44631
867	61202	44561
868	61265	44486
869	61337	44416
870	61412	44349
871	61472	44271
872	61545	44202
873	61603	44123
874	61673	44052
875	61738	43978
876	61822	43917
877	61910	43859
878	61993	43797
879	62079	43737
880	62145	43664
881	62206	43587
882	62272	43513
883	62330	43434
884	62402	43364
885	62474	43295
886	62543	43223
887	62612	43151
888	62675	43076
889	62734	42998
890	62800	42923
891	62867	42851
892	62934	42778
893	62997	42703
894	63064	42630
895	63135	42560
896	63197	42483
897	63261	42408
898	63331	42338
899	63393	42262
900	63460	42189
901	63521	42113
902	63598	42046
903	63664	41973
904	63728	41899
905	63801	41829
906	63867	41756
907	63940	41687
908	64002	41611
909	64094	41555
910	64184	41498
911	64273	41439
912	64339	41366
913	64402	41290
914	64472	41220
915	64536	41145
916	64607	41075
917	64685	41009
918	64762	40943
919	64829	40870
920	64896	40798
921	64965	40726
922	65037	40657
923	65102	40583
924	65167	40509
925	65233	40436
926	65306	40367
927	65363	40288
928	65432	40217
929	65493	40140
930	65567	40072
931	65632	39999
932	65697	39925
933	65784	39865
934	65846	39789
935	65918	39720
936	65985	39647
937	66047	39572
938	66112	39498
939	66169	39419
940	66238	39348
941	66319	39284
942	66418	39231
943	66490	39161
944	66559	39090
945	66628	39019
946	66691	38944
947	66764	38875
948	66829	38802
949	66906	38735
950	66973	38662
951	67042	38591
952	67103	38515
953	67169	38442
954	67241	38373
955	67314	38304
956	67375	38228
957	67439	38154
958	67503	38080
959	67572	38009
960	67642	37938
961	67751	37890
962	67842	37830
963	67913	37761
964	68013	37707
965	68090	37640
966	68160	37569
967	68221	37493
968	68287	37420
969	68359	37351
970	68419	37274
971	68486	37202
972	68551	37129
973	68637	37067
974	68767	37028
975	68867	36974
976	68977	36924
977	69053	36857
978	69131	36790
979	69204	36721
980	69283	36654
981	69394	36605
982	69472	36538
983	69536	36464
984	69623	36401
985	69704	36336
986	69778	36268
987	69850	36198
988	69919	36126
989	70005	36063
990	70082	35995
991	70185	35941
992	70267	35876
993	70340	35807
994	70410	35735
995	70471	35660
996	70526	35581
997	70587	35506
998	70642	35427
999	70692	35346
1000	70742	35265
1001	70801	35188
1002	70869	35116
1003	70936	35044
1004	71006	34973
1005	71096	34912
1006	71183	34849
1007	71268	34785
1008	71329	34710
1009	71386	34633
1010	71435	34551
1011	71495	34476
1012	71548	34396
1013	71615	34324
1014	71671	34246
1015	71731	34171
1016	71787	34093
1017	71851	34020
1018	71902	33940
1019	71953	33860
1020	72021	33788
1021	72082	33713
1022	72171	33652
1023	72233	33577
1024	72291	33501
1025	72363	33431
1026	72445	33365
1027	72512	33293
1028	72571	33217
1029	72633	33143
1030	72697	33069
1031	72782	33005
1032	72846	32932
1033	72928	32867
1034	72998	32796
1035	73070	32726
1036	73142	32656
1037	73213	32586
1038	73283	32515
1039	73356	32445
1040	73417	32371
1041	73502	32307
1042	73574	32237
1043	73641	32165
1044	73722	32099
1045	73797	32030
1046	73861	31957
1047	73932	31887
1048	74015	31821
1049	74108	31760
1050	74197	31697
1051	74266	31626
1052	74338	31556
1053	74408	31486
1054	74475	31413
1055	74554	31346
1056	74636	31280
1057	74713	31212
1058	74781	31141
1059	74851	31070
1060	74908	30994
1061	74986	30926
1062	75052	30854
1063	75122	30783
1064	75197	30714
1065	75256	30639
1066	75326	30568
1067	75386	30493
1068	75458	30423
1069	75530	30353
1070	75593	30279
1071	75669	30211
1072	75747	30143
1073	75816	30072
1074	75889	30002
1075	75954	29929
1076	76020	29857
1077	76093	29788
1078	76156	29714
1079	76224	29642
1080	76285	29568
1081	76357	29498
1082	76427	29427
1083	76493	29355
1084	76561	29283
1085	76630	29212
1086	76702	29142
1087	76782	29075
1088	76843	29001
1089	76912	28930
1090	77011	28870
1091	77111	28810
1092	77207	28749
1093	77276	28678
1094	77345	28607
1095	77402	28531
1096	77483	28464
1097	77568	28399
1098	77655	28334
1099	77722	28262
1100	77793	28192
1101	77861	28120
1102	77934	28050
1103	78004	27979
1104	78064	27905
1105	78136	27835
1106	78210	27765
1107	78287	27697
1108	78347	27623
1109	78412	27550
1110	78480	27478
1111	78549	27407
1112	78611	27333
1113	78682	27263
1114	78750	27191
1115	78819	27120
1116	78883	27047
1117	78951	26976
1118	79028	26907
1119	79100	26837
1120	79166	26765
1121	79238	26695
1122	79297	26620
1123	79363	26548
1124	79435	26478
1125	79510	26409
1126	79571	26335
1127	79644	26265
1128	79739	26202
1129	79824	26137
1130	79899	26068
1131	79968	25996
1132	80033	25924
1133	80108	25855
1134	80181	25785
1135	80249	25713
1136	80312	25640
1137	80377	25568
1138	80451	25498
1139	80514	25425
1140	80581	25353
1141	80650	25282
1142	80718	25211
1143	80786	25139
1144	80856	25069
1145	80923	24997
1146	80990	24925
1147	81050	24851
1148	81119	24780
1149	81178	24706
1150	81252	24636
1151	81323	24566
1152	81391	24495
1153	81458	24423
1154	81525	24351
1155	81590	24279
1156	81657	24207
1157	81727	24137
1158	81788	24063
1159	81850	23990
1160	81923	23920
1161	82019	23857
1162	82108	23792
1163	82187	23724
1164	82251	23651
1165	82318	23580
1166	82392	23510
1167	82461	23439
1168	82522	23366
1169	82581	23292
1170	82658	23223
1171	82723	23151
1172	82788	23079
1173	82847	23005
1174	82914	22933
1175	82986	22863
1176	83050	22791
1177	83119	22720
1178	83195	22651
1179	83255	22577
1180	83312	22503
1181	83376	22431
1182	83445	22360
1183	83515	22289
1184	83580	22217
1185	83649	22146
1186	83714	22074
1187	83786	22004
1188	83852	21932
1189	83911	21859
1190	83978	21787
1191	84044	21716
1192	84107	21643
1193	84172	21571
1194	84232	21498
1195	84300	21427
1196	84369	21356
1197	84432	21284
1198	84514	21216
1199	84583	21145
1200	84643	21072
1201	84708	21000
1202	84776	20929
1203	84846	20859
1204	84914	20788
1205	84980	20716
1206	85051	20646
1207	85110	20572
1208	85169	20499
1209	85241	20429
1210	85310	20358
1211	85375	20287
1212	85442	20216
1213	85511	20145
1214	85593	20077
1215	85688	20012
1216	85770	19945
1217	85843	19875
1218	85909	19803
1219	85976	19732
1220	86048	19662
1221	86111	19590
1222	86183	19519
1223	86255	19449
1224	86325	19379
1225	86387	19306
1226	86455	19235
1227	86520	19164
1228	86602	19096
1229	86676	19026
1230	86753	18957
1231	86821	18886
1232	86886	18814
1233	86957	18744
1234	87026	18673
1235	87098	18603
1236	87163	18531
1237	87231	18460
1238	87291	18388
1239	87353	18316
1240	87417	18244
1241	87480	18172
1242	87546	18100
1243	87618	18030
1244	87687	17960
1245	87748	17887
1246	87823	17818
1247	87897	17748
1248	87960	17676
1249	88026	17605
1250	88101	17535
1251	88181	17467
1252	88265	17399
1253	88338	17329
1254	88400	17257
1255	88465	17185
1256	88530	17114
1257	88607	17045
1258	88670	16973
1259	88739	16902
1260	88799	16830
1261	88873	16760
1262	88947	16690
1263	89006	16618
1264	89076	16547
1265	89141	16476
1266	89215	16406
1267	89278	16334
1268	89338	16262
1269	89409	16192
1270	89477	16121
1271	89538	16049
1272	89602	15977
1273	89676	15908
1274	89744	15837
1275	89805	15765
1276	89866	15693
1277	89932	15622
1278	90014	15553
1279	90084	15483
1280	90158	15413
1281	90224	15342
1282	90297	15272
1283	90387	15205
1284	90464	15136
1285	90546	15067
1286	90617	14997
1287	90678	14925
1288	90747	14854
1289	90817	14784
1290	90889	14714
1291	90952	14642
1292	91013	14570
1293	91087	14500
1294	91157	14430
1295	91228	14360
1296	91297	14289
1297	91367	14219
1298	91438	14148
1299	91512	14078
1300	91576	14007
1301	91643	13936
1302	91707	13865
1303	91779	13795
1304	91847	13724
1305	91989	13664
1306	92109	13601
1307	92188	13532
1308	92262	13462
1309	92335	13392
1310	92403	13321
1311	92468	13250
1312	92539	13179
1313	92616	13110
1314	92716	13043
1315	92807	12976
1316	92871	12904
1317	92933	12832
1318	92998	12761
1319	93059	12689
1320	93125	12618
1321	93195	12548
1322	93255	12476
1323	93331	12406
1324	93400	12335
1325	93474	12265
1326	93539	12194
1327	93611	12124
1328	93677	12053
1329	93747	11982
1330	93817	11912
1331	93886	11841
1332	93949	11770
1333	94021	11699
1334	94080	11627
1335	94148	11557
1336	94223	11487
1337	94293	11416
1338	94366	11346
1339	94437	11276
1340	94508	11205
1341	94573	11134
1342	94638	11063
1343	94707	10992
1344	94768	10921
1345	94834	10850
1346	94903	10779
1347	94968	10708
1348	95031	10637
1349	95099	10566
1350	95164	10495
1351	95234	10425
1352	95293	10353
1353	95356	10282
1354	95425	10211
1355	95496	10141
1356	95599	10074
1357	95690	10005
1358	95781	9937
1359	95851	9867
1360	95921	9796
1361	95983	9725
1362	96050	9654
1363	96112	9583
1364	96178	9512
1365	96245	9441
1366	96310	9370
1367	96369	9298
1368	96430	9227
1369	96502	9157
1370	96575	9086
1371	96655	9017
1372	96718	8946
1373	96790	8875
1374	96855	8805
1375	96919	8734
1376	96982	8662
1377	97052	8592
1378	97114	8521
1379	97181	8450
1380	97240	8379
1381	97313	8309
1382	97378	8238
1383	97440	8166
1384	97508	8096
1385	97581	8026
1386	97650	7955
1387	97715	7884
1388	97792	7814
1389	97864	7744
1390	97935	7674
1391	97998	7603
1392	98057	7532
1393	98122	7461
1394	98183	7390
1395	98246	7319
1396	98331	7249
1397	98415	7180
1398	98518	7112
1399	98586	7041
1400	98652	6971
1401	98724	6900
1402	98797	6830
1403	98864	6759
1404	98936	6689
1405	99000	6618
1406	99062	6547
1407	99128	6477
1408	99192	6406
1409	99258	6335
1410	99326	6265
1411	99387	6194
1412	99455	6123
1413	99530	6053
1414	99591	5982
1415	99659	5911
1416	99727	5841
1417	99797	5771
1418	99864	5700
1419	99939	5630
1420	100004	5559
1421	100075	5489
1422	100145	5418
1423	100217	5348
1424	100288	5278
1425	100357	5207
1426	100429	5137
1427	100489	5066
1428	100562	4996
1429	100643	4926
1430	100731	4857
1431	100807	4786
1432	100873	4716
1433	100937	4645
1434	101010	4575
1435	101083	4505
1436	101139	4434
1437	101209	4363
1438	101271	4292
1439	101337	4222
1440	101406	4151
1441	101467	4081
1442	101536	4010
1443	101597	3940
1444	101664	3869
1445	101732	3799
1446	101802	3728
1447	101865	3658
1448	101936	3587
1449	101998	3517
1450	102080	3447
1451	102149	3376
1452	102221	3306
1453	102285	3236
1454	102356	3165
1455	102423	3095
1456	102485	3024
1457	102559	2954
1458	102619	2883
1459	102685	2813
1460	102769	2743
1461	102855	2673
1462	102933	2603
1463	103009	2533
1464	103069	2462
1465	103147	2392
1466	103228	2322
1467	103302	2251
1468	103369	2181
1469	103432	2110
1470	103499	2040
1471	103566	1970
1472	103629	1899
1473	103700	1829
1474	103773	1758
1475	103833	1688
1476	103901	1617
1477	103976	1547
1478	104037	1477
1479	104107	1406
1480	104172	1336
1481	104240	1266
1482	104323	1195
1483	104385	1125
1484	104451	1055
1485	104515	984
1486	104583	914
1487	104647	843
1488	104720	773
1489	104788	703
1490	104860	632
1491	104925	562
1492	104998	492
1493	105059	421
1494	105128	351
1495	105197	281
1496	105261	210
1497	105326	140
1498	105404	70
1499	105471	0
